{
  "id": "l5r5e-world-waves",
  "title": "L5R5E - Cresting Waves",
  "description": "<p>- <strong><em>Cresting Waves</em></strong>, supplemental encounters for <em>Sins of Regret</em> adventure in english and french for Legend of the Five Rings 5th Edition.</p>\n<p>- <em><strong>La Cr&ecirc;te des Vagues</strong></em>, des rencontres suppl&eacute;mentaires pour l'aventure <em>Les Fant&ocirc;mes du Pass&eacute;</em> en anglais et fran&ccedil;ais pour la L&eacute;gende des Cinq Anneaux 5eme Edition</p>",
  "url": "https://gitlab.com/teaml5r/l5r5e-world-waves",
  "readme": "https://gitlab.com/teaml5r/l5r5e-world-waves/-/blob/master/README.md",
  "license": "https://gitlab.com/teaml5r/l5r5e-world-waves/-/blob/master/LICENSE.md",
  "manifest": "https://gitlab.com/teaml5r/l5r5e-world-waves/-/raw/master/world/world.json",
  "download": "https://gitlab.com/teaml5r/l5r5e-world-waves/-/jobs/artifacts/v1.0.1/raw/l5r5e-world-waves.zip?job=build",
  "version": "1.0.1",
  "coreVersion": "10",
  "compatibility": {
    "minimum": 10,
    "verified": "10"
  },
  "authors": [
    {
      "name": "Vlyan",
      "discord": "Vlyan#6771",
      "url": "https://ko-fi.com/vlyan"
    },
    {
      "name": "Carter",
      "discord": "Carter#2703",
      "url": "https://fr.tipeee.com/carter-foundryvtt"
    }
  ],
  "system": "l5r5e"
}